<svg xmlns="http://www.w3.org/2000/svg" xmlns:xlink="http://www.w3.org/1999/xlink" width="25" height="25" viewBox="0 0 25 25">
  <defs>
    <clipPath id="clip-path">
      <rect id="Прямоугольник_165" data-name="Прямоугольник 165" width="25" height="25" transform="translate(305 1160.261)" fill="#fff" stroke="#707070" stroke-width="1"/>
    </clipPath>
  </defs>
  <g id="Группа_масок_5" data-name="Группа масок 5" transform="translate(-305 -1160.261)" clip-path="url(#clip-path)">
    <g id="desk" transform="translate(304.597 1159.858)">
      <path id="Контур_187" data-name="Контур 187" d="M25,10.887H20.968V9.677a.4.4,0,0,0-.4-.4A2,2,0,0,0,19.031,10a1.528,1.528,0,0,0-.314-.15L17.89,9.57a.8.8,0,0,1-.552-.765V8.468h4.435a.807.807,0,0,0,.806-.806V1.21A.807.807,0,0,0,21.774.4H10.484a.807.807,0,0,0-.806.806V7.661a.807.807,0,0,0,.806.806h4.435v.338a.806.806,0,0,1-.552.765l-.827.276a1.517,1.517,0,0,0-.983,1.041h-4.9V4.032a.4.4,0,0,0-.4-.4H2.419a.4.4,0,0,0-.4.4v6.855H.806a.4.4,0,0,0-.4.4V25a.4.4,0,0,0,.4.4H2.419a.4.4,0,0,0,.4-.4V22.177H6.855V25a.4.4,0,0,0,.4.4H8.871a.4.4,0,0,0,.4-.4V14.113h9.274v2.823H13.306a2.018,2.018,0,0,0-2.016,2.016v.806a.4.4,0,0,0,.4.4h3.226v.306a3.7,3.7,0,0,1-.984,2.517h-.629a1.21,1.21,0,1,0,0,2.419h5.645a1.21,1.21,0,1,0,0-2.419h-.629a3.7,3.7,0,0,1-.984-2.517v-.306h2.419a1.211,1.211,0,0,0,1.21-1.21V14.113h2.016V25a.4.4,0,0,0,.4.4H25a.4.4,0,0,0,.4-.4V11.29A.4.4,0,0,0,25,10.887ZM21.774,1.21V6.048H10.484V1.21ZM10.484,6.855H21.775v.806H10.484ZM13.8,10.611l.827-.275a1.611,1.611,0,0,0,1.1-1.53V8.468h.806v.338a1.611,1.611,0,0,0,1.1,1.53l.827.276a.714.714,0,0,1,.183.093,1.893,1.893,0,0,0-.056.183H13.433a.713.713,0,0,1,.362-.277ZM6.855,8.468H2.823V6.855H6.855Zm0-4.032V6.048H2.823V4.435ZM2.823,9.274H6.855v1.613H2.823ZM2.016,24.6H1.21V14.113h.806ZM6.855,14.113v3.226H2.823V14.113ZM2.823,21.371V18.145H6.855v3.226ZM8.468,24.6H7.661V14.113h.806Zm.4-11.29H1.21V11.694H18.548v1.613ZM19.355,11.29a1.212,1.212,0,0,1,.806-1.141v6.786h-.806Zm0,12.9a.4.4,0,0,1-.4.4H13.306a.4.4,0,1,1,0-.806h5.645A.4.4,0,0,1,19.355,24.194Zm-2.061-1.21h-2.33a4.5,4.5,0,0,0,.762-2.517v-.306h.806v.306A4.5,4.5,0,0,0,17.294,22.984Zm2.867-4.032a.4.4,0,0,1-.4.4H12.1v-.4a1.211,1.211,0,0,1,1.21-1.21h6.855Zm.806-7.258H24.6v1.613H20.968ZM24.6,24.6H23.79V14.113H24.6Z"/>
      <path id="Контур_188" data-name="Контур 188" d="M4.032,14.919H5.645v.806H4.032Z"/>
      <path id="Контур_189" data-name="Контур 189" d="M4.032,18.952H5.645v.806H4.032Z"/>
    </g>
  </g>
</svg>
